#include<iostream>
using namespace std;
class Order{
    public:
    void announce()
    {
        cout<<"HOD: tommorow is holiday"<<endl;
    }

};
class Bsec:public Order{
    public:
    void reaction()
    {
        cout<<"Students: everyone is happy"<<endl;
    }
};
int main()
{
    Bsec obj;
    obj.announce();
    obj.reaction();
}
